…
Scores can be from -16 to 240. (Higher scores indicate more dysfunction.)


Real data
========================================================
transition: none


```r
patients
```

```
# A tibble: 1,613 x 3
   program_id score_admit score_discharge
        <int>       <int>           <int>
 1          1          15              -7
 2          1          57              15
 3          1          59             120
 4          1          36              20
 5          1          71              53
 6          1          60              67
 7          1          36               9
 8          1         142             119
 9          2         136              68
10          2          48              80
# ... with 1,603 more rows
```
…
Two types of programs ("A" and "B").


Real data
========================================================
transition: none


```r
programs
```

```
# A tibble: 26 x 3
   program_id program_type     n
        <int> <chr>        <int>
 1          1 A                8
 2          2 B               52
 3          3 A               21
 4          4 A               26
 5          5 A               19
 6          6 A                7
 7          7 B               15
 8          8 B              359
 9          9 B              116
10         10 A              117
# ... with 16 more rows
```
…
46 is the clinical cutoff.


```r
score_summary <- as_tibble(summary(score_fit)$summary,
                           rownames = "param")
score_summary %>%
    filter(str_detect(.$param, pattern = "^a"))
```

```
# A tibble: 26 x 11
   param  mean se_mean    sd `2.5%` `25%` `50%` `75%` `97.5%` n_eff  Rhat
   <chr> <dbl>   <dbl> <dbl>  <dbl> <dbl> <dbl> <dbl>   <dbl> <dbl> <dbl>
 1 a[1]   44.3  0.113   7.64   29.2  39.1  44.3  49.5    59.0 4569. 1.000
 2 a[2]   32.2  0.0489  3.48   25.3  29.9  32.2  34.6    39.0 5079. 1.00 
 3 a[3]   25.6  0.0647  5.05   15.6  22.3  25.7  29.0    35.6 6103. 0.999
 4 a[4]   28.3  0.0632  4.67   19.0  25.1  28.2  31.5    37.5 5467. 0.999
 5 a[5]   27.2  0.0884  5.48   16.9  23.5  27.3  30.9    38.0 3846. 1.000
 6 a[6]   27.7  0.106   7.51   13.0  22.5  27.7  32.9    41.7 4996. 1.000
 7 a[7]   46.6  0.0799  5.91   35.2  42.5  46.5  50.6    58.4 5483. 1.000
 8 a[8]   30.5  0.0180  1.32   28.0  29.6  30.5  31.5    33.1 5334. 1.000
 9 a[9]   39.9  0.0330  2.38   35.3  38.3  39.9  41.5    44.5 5177. 0.999
10 a[10]  27.9  0.0334  2.41   23.3  26.3  28.0  29.6    32.6 5189. 1.000
# ... with 16 more rows
```
…
* Slopes are not expected to be negative.
    - More dysfunction at admission will predict more at discharge.
* But they should be less than 1.
    - Patients should not leave more dysfunctional than when they entered.


```r
score_summary %>%
    filter(str_detect(.$param, pattern = "^b"))
```

```
# A tibble: 26 x 11
   param  mean  se_mean     sd `2.5%` `25%` `50%` `75%` `97.5%` n_eff  Rhat
   <chr> <dbl>    <dbl>  <dbl>  <dbl> <dbl> <dbl> <dbl>   <dbl> <dbl> <dbl>
 1 b[1]  0.361 0.00301  0.123  0.153  0.277 0.346 0.429   0.642 1666. 1.00 
 2 b[2]  0.329 0.00129  0.0772 0.172  0.279 0.332 0.380   0.482 3562. 1.00 
 3 b[3]  0.278 0.00205  0.109  0.0711 0.207 0.276 0.346   0.504 2804. 1.00 
 4 b[4]  0.263 0.00155  0.0906 0.0872 0.204 0.262 0.319   0.441 3428. 1.000
 5 b[5]  0.222 0.00143  0.0882 0.0443 0.165 0.223 0.282   0.390 3803. 1.00 
 6 b[6]  0.234 0.00180  0.103  0.0172 0.170 0.236 0.300   0.435 3298. 1.00 
 7 b[7]  0.477 0.00236  0.108  0.286  0.403 0.469 0.546   0.710 2082. 1.00 
 8 b[8]  0.300 0.000669 0.0393 0.223  0.274 0.300 0.326   0.375 3448. 1.00 
 9 b[9]  0.385 0.000911 0.0608 0.267  0.346 0.385 0.425   0.504 4448. 1.000
10 b[10] 0.223 0.000826 0.0542 0.118  0.188 0.224 0.259   0.330 4315. 1.000
# ... with 16 more rows
```
…
